…
If a more customized plot is needed, the data the underpins the plots can also be accessed:

1.  `db_compute_bins()` - Returns a data frame with the bins and count per bin
2.  `db_compute_count()` - Returns a data frame with the count per discrete value
3.  `db_compute_raster()` - Returns a data frame with the results per x/y intersection
4.  `db_compute_boxplot()` - Returns a data frame with boxplot calculations

``` r
spark_flights %>%
  db_compute_bins(arr_delay)
```

    ## # A tibble: 28 x 2
    ##     arr_delay  count
    ##         <dbl>  <dbl>
    ##  1   4.533333  79784
    ##  2 -40.733333 207999
    ##  3  95.066667   7890
    ##  4  49.800000  19063
    ##  5 819.333333      8
    ##  6 140.333333   3746
    ##  7 321.400000    232
    ##  8 230.866667    921
    ##  9 -86.000000   5325
    ## 10 185.600000   1742
    ## # ... with 18 more rows
…
