Simplifies Plotting Data Inside Databases • dbplot
…
db_compute_bins() - Returns a data frame with the bins and count per bin

db_compute_count() - Returns a data frame with the count per discrete value

db_compute_raster() - Returns a data frame with the results per x/y intersection

db_compute_raster2() - Returns same as db_compute_raster() function plus the coordinates of the x/y boxes

db_compute_boxplot() - Returns a data frame with boxplot calculations

spark_flights %>%
  db_compute_bins(arr_delay) 

## # A tibble: 28 x 2
##    arr_delay  count
##        <dbl>  <dbl>
##  1      4.53  79784
##  2    -40.7  207999
##  3     95.1    7890
##  4     49.8   19063
##  5    819.        8
##  6    140.     3746
##  7    321.      232
##  8    231.      921
##  9    -86      5325
## 10    186.     1742
## # ... with 18 more rows
…
